<svg version="1.1" viewBox="0 0 16 16" xmlns="http://www.w3.org/2000/svg">
    <path d="M1 2v6l6.691 6.691c.188.188.413.205.598.02l6.383-6.383c.221-.221.207-.45.02-.636L8 1H2c-.464 0-1 .491-1 1zm3 .962A1.07 1.07 0 1 1 4 5.1a1.07 1.07 0 0 1 0-2.138z" fill="#2e3436"/>
</svg>
